[
    {
        "model-name": "Group",
        "resource-file": "groups.json",
        "table-name": "groups"
    },
    {
        "model-name": "Mailing",
        "resource-file": "mailings.json",
        "table-name": "mailings"
    },
    {
        "model-name": "Account",
        "resource-file": "accounts.json",
        "table-name": "accounts"
    },
    {
        "model-name": "History",
        "resource-file": "histories.json",
        "table-name": "histories"
    },
    {
        "model-name": "Post",
        "resource-file": "posts.json",
        "table-name": "posts"
    }
]